COCI: OpenCitations Index of Crossref open DOI-to-DOI references — oc_coci • rOpenSci: citecorp
…
if (
crul::ok(
"http://opencitations.net/index/coci/api/v1/references/10.1108/jd-12-2013-0166",
timeout_ms = 1000L)
) {
try(
  oc_coci_cites(doi1),
  silent = TRUE
)
}

#> # A tibble: 25 x 7
#>    author_sc creation  oci                journal_sc timespan cited    citing   
#>  * <chr>     <chr>     <chr>              <chr>      <chr>    <chr>    <chr>    
#>  1 no        2018      02001010405360301… no         P3Y      10.1108… 10.1145/…
#>  2 no        2017-08   02001000507362804… no         P2Y5M    10.1108… 10.1057/…
#>  3 no        2019-04-… 02003020303361328… no         P4Y1M1D  10.1108… 10.3233/…
#>  4 no        2019-08-… 02003020303361328… no         P4Y5M10D 10.1108… 10.3233/…
#>  5 no        2016-03-… 02003020303362832… no         P1Y0M14D 10.1108… 10.3233/…
#>  6 no        2019-01-… 02003020303362832… no         P3Y10M1… 10.1108… 10.3233/…
#>  7 no        2018-09   02001010402362800… no         P3Y6M    10.1108… 10.1142/…
#>  8 no        2018-03-… 02007050504361421… no         P2Y11M2… 10.1108… 10.7554/…
#>  9 no        2015      02003030406361920… no         P0Y      10.1108… 10.3346/…
#> 10 no        2018      02001000007360907… no         P3Y      10.1108… 10.1007/…
#> # … with 15 more rows
…
